<svg xmlns="http://www.w3.org/2000/svg" width="81" height="81" viewBox="0 0 81 81">
  <path fill="#fff" fill-rule="evenodd" d="M332.419,47.626 L258.039,47.626 C255.974,47.626 254.631,49.798 255.552,51.646 L292.641,126.026 C293.663,128.075 296.586,128.078 297.612,126.031 L334.903,51.651 C335.83,49.803 334.486,47.626 332.419,47.626" transform="translate(-255 -47)"/>
</svg>
