<svg xmlns="http://www.w3.org/2000/svg" width="84" height="84" viewBox="0 0 84 84">
  <path fill="#fff" fill-rule="evenodd" d="M129.963,47.626 C106.94,47.626 88.277,66.29 88.277,89.313 C88.277,112.336 106.94,131 129.963,131 C152.986,131 171.65,112.336 171.65,89.313 C171.65,66.29 152.986,47.626 129.963,47.626" transform="translate(-88 -47)"/>
</svg>
